{
    "swagger": "2.0",
    "info": {
        "description": "Documentation for Binar Challenge FW C8, only for learning purpose",
        "version": "1.0.0",
        "title": "C-8 API Docs",
        "termsOfService": "http://localhost:5000/tos",
        "contact": {
            "email": "bkhaqi@gmail.com",
            "name": "Bening Kumala Haqi"
        },
        "license": {
            "name": "MIT License (MIT)",
            "url": "https://opensource.org/license/mit/"
        }
    },
    "host": "localhost:5000",
    "basePath": "/api",
    "schemes": [
        "http"
    ],
    "consumes": [
        "application/json"
    ],
    "produces": [
        "application/json"
    ],
    "paths": {
        "/players": {
            "post": {
                "summary": "Create New Player",
                "description": "Create New Player",
                "operationId": "createPlayer",
                "tags": [
                    "Player"
                ],
                "parameters": [
                    {
                        "name": "player",
                        "in": "body",
                        "description": "Register Player Data",
                        "schema": {
                            "required": [
                                "username",
                                "email",
                                "password"
                            ],
                            "type": "object",
                            "properties": {
                                "username": {
                                    "type": "string",
                                    "example" : "username"
                                },
                                "email": {
                                    "type": "string",
                                    "example" : "example@mail.com"
                                },
                                "password": {
                                    "type": "string",
                                    "example": "username123456"
                                }
                            }
                        }
                    }
                ],
                "responses": {
                    "201" :{
                        "description": "Create Player Success",
                        "schema" :{
                            "$ref": "#/definitions/ApiResponseMsgObject"
                        }
                    },
                    "400":{
                        "description": "Invalid Player Data",
                        "schema": {
                            "$ref": "#/definitions/ApiResponseMsgString"
                        }
                    },
                    "500":{
                        "description": "Internal Server Error",
                        "schema": {
                            "$ref": "#/definitions/ApiResponseMsgString"
                        }
                    }
                }
            },
            "get": {
                "summary": "Get All Player Data by Query Parameters",
                "description": "Get All Player Data with Query Parameters",
                "operationId": "getPlayerByQuery",
                "tags": [
                    "Player"
                ],
                "parameters": [
                    {
                        "name" : "username",
                        "in": "query",
                        "type": "string"
                    },
                    {
                        "name" : "email",
                        "in": "query",
                        "type": "string"
                    },
                    {
                        "name" : "experience",
                        "in": "query",
                        "type": "string"
                    },
                    {
                        "name" : "lvl",
                        "in": "query",
                        "type": "string"
                    }
                ],
                "responses": {
                    "200" :{
                        "description": "SUCCES",
                        "schema" : {
                            "$ref": "#/definitions/ApiResponseMsgArray"
                        }
                    },
                    "500" : {
                        "description": "Internal Server Error",
                        "schema" : {
                            "$ref": "#/definitions/ApiResponseMsgString"
                        }
                    }
                }
            }
        },
        "/players/{id}" : {
            "get": {
                "summary": "Get Player by id",
                "description": "Get Player by id",
                "operationId": "getPlayerById",
                "tags": [
                    "Player"
                ],
                "parameters": [
                    {
                        "name" : "id",
                        "in": "path",
                        "type": "integer",
                        "required": true
                    }
                ],
                "responses": {
                    "200" :{
                        "description": "SUCCES",
                        "schema" : {
                            "$ref": "#/definitions/ApiResponseMsgArray"
                        }
                    },
                    "500" : {
                        "description": "Internal Server Error",
                        "schema" : {
                            "$ref": "#/definitions/ApiResponseMsgString"
                        }
                    }
                }

            },
            "put": {
                "summary": "Edit Player Data by id",
                "description": "Edit Player Data by id",
                "operationId": "EditPlayerDataById",
                "tags": [
                    "Player"
                ],
                "parameters": [
                    {
                        "name" : "id",
                        "in": "path",
                        "type": "integer",
                        "required": true
                    },
                    {
                        "name" : "player",
                        "in": "body",
                        "schema": {
                            "properties": {
                                "username" : {
                                    "type" : "string"
                                },
                                "email" : {
                                    "type":"string"
                                },
                                "password":{
                                    "type": "string"
                                }
                            }
                        }
                    }
                ],
                "responses": {
                    "200" :{
                        "description": "Edit Player Success",
                        "schema" :{
                            "$ref": "#/definitions/ApiResponseMsgString"
                        }
                    },
                    "400":{
                        "description": "Invalid Player Data",
                        "schema": {
                            "$ref": "#/definitions/ApiResponseMsgString"
                        }
                    },
                    "500":{
                        "description": "Internal Server Error",
                        "schema": {
                            "$ref": "#/definitions/ApiResponseMsgString"
                        }
                    }
                }
            },
            "delete": {
                "summary": "Delete Player by id",
                "description": "Delete Player by id",
                "operationId": "deletePlayerById",
                "tags": [
                    "Player"
                ],
                "parameters": [
                    {
                        "name" : "id",
                        "in": "path",
                        "type": "integer",
                        "required": true
                    }
                ],
                "responses": {
                    "200" :{
                        "description": "Delete Player Success",
                        "schema" :{
                            "$ref": "#/definitions/ApiResponseMsgString"
                        }
                    },
                    "400":{
                        "description": "Invalid Player Data",
                        "schema": {
                            "$ref": "#/definitions/ApiResponseMsgString"
                        }
                    },
                    "500":{
                        "description": "Internal Server Error",
                        "schema": {
                            "$ref": "#/definitions/ApiResponseMsgString"
                        }
                    }
                }
            }
        },
        "/players/exp/{id}" : {
            "post": {
                "summary": "Add player experience by certain amount",
                "description": "Add player experience by certain amount",
                "operationId": "AddPlayerExperience",
                "tags": [
                    "Player"
                ],
                "parameters": [
                    {
                        "name" : "id",
                        "in": "path",
                        "type": "integer",
                        "required": true
                    },
                    {
                        "name" : "exp",
                        "in": "body",
                        "schema": {
                            "properties": {
                                "exp" : {
                                    "type" : "integer"
                                }
                            }
                        }
                    }
                ],
                "responses": {
                    "200" :{
                        "description": "Add Player Experience Success",
                        "schema" :{
                            "$ref": "#/definitions/ApiResponseMsgString"
                        }
                    },
                    "400":{
                        "description": "Invalid Experience Data",
                        "schema": {
                            "$ref": "#/definitions/ApiResponseMsgString"
                        }
                    }
                }
            }
        }
    },
    "definitions": {
        "Player" : {
            "type":"object",
            "properties": {
                "username" : {
                    "type" : "string"
                },
                "email" : {
                    "type":"string"
                },
                "password":{
                    "type": "string"
                },
                "exp": {
                    "type":"integer"
                },
                "lvl": {
                    "type":"integer",
                    "description": "1000 is length of experience per level. Once experience reach multiple of this, the level increases automatically"
                }
            }
        },
        "ApiResponseMsgObject" : {
                "type" : "object",
                "properties" : {
                    "result" : {
                        "type":"string"
                    },
                    "message" : {
                        "type": "object"
                    }
                 }
        },
        "ApiResponseMsgString" : {
                "type" : "object",
                "properties" : {
                    "result" : {
                        "type":"string"
                    },
                    "message" : {
                        "type": "string"
                    }
                 }
         },
         "ApiResponseMsgArray" : {
            "type" : "object",
            "properties" : {
                "result" : {
                    "type":"string"
                },
                "message" : {
                    "type": "array"
                }
             }
        }
    }
}